1997
  Croatia, Biograd na Moru
  Ul. bana Ivana Mažuranića 1, 23210
  43.93836828560096, 15.451225735688137
  beach Soline
  



2000
  Italy, Caorle
  30021
  beach 45.61380032855631, 12.907616831883043
  trip to Venice


2001 ?
  Croatia, Novalja
  44.559863245668964, 14.875872458874607
  Primorska ulica 37, Novalja 53291

  extended 3 days in Privlaka, 44.2572756556983, 15.128398777235212
    beach Mostina 44.255016433064895, 15.12658638347994


2002
  Italy, Gargano
  Villaggio Camping Stella del Sud
  41.92360777902784, 15.840087238104772

2003
  Croatia, Bela
  TRGOVAČKI OBRT M B VL. JURICA CAREVIĆ BRELA
  43.3846692687422, 16.90745273673055




  Egypt, Hurghada
  27.260314879580594, 33.82145067695522
  El Geisum Village
  trip to Kahira and pyramids of Giza


2009 2010
  Croatia, Rab



2017
  Croatia, Brela




